{
  "total_results": 10,
  "total_pages": 1,
  "prev_url": null,
  "next_url": "/v2/apps?order-direction=asc&page=2&results-per-page=100",
  "resources": [
    {
      "metadata": {
        "guid": "app-guid"
      },
      "entity": {
        "name": "app1"
      }
    }
  ]
}